class3_2026/class3_2026_sebasteam/verif/work/xsim.log
#-----------------------------------------------------------
# xsim v2025.2 (64-bit)
# SW Build 6299465 on Fri Nov 14 12:34:56 MST 2025
# IP Build 6300035 on Fri Nov 14 10:48:45 MST 2025
# SharedData Build 6298862 on Thu Nov 13 04:50:51 MST 2025
# Start of session at: Mon Mar  2 22:56:31 2026
# Process ID         : 8830
# Current directory  : /home/manuelrivera/git_repositories/DD_class_projects/class3_2026/class3_2026_sebasteam/verif/work
# Command line       : xsim -mode tcl -source {xsim.dir/work.wb_top_tb/xsim_script.tcl}
# Log file           : /home/manuelrivera/git_repositories/DD_class_projects/class3_2026/class3_2026_sebasteam/verif/work/xsim.log
# Journal file       : /home/manuelrivera/git_repositories/DD_class_projects/class3_2026/class3_2026_sebasteam/verif/work/xsim.jou
# Running On         : lap
# Platform           : Ubuntu
# Operating System   : Ubuntu 24.04.3 LTS
# Processor Detail   : Intel(R) Core(TM) i5-8300H CPU @ 2.30GHz
# CPU Frequency      : 3997.815 MHz
# CPU Physical cores : 4
# CPU Logical cores  : 8
# Host memory        : 8123 MB
# Swap memory        : 8000 MB
# Total Virtual      : 16124 MB
# Available Virtual  : 13317 MB
#-----------------------------------------------------------
source xsim.dir/work.wb_top_tb/xsim_script.tcl
# xsim {work.wb_top_tb} -autoloadwcfg -runall
Time resolution is 1 ps
open_wave_config /home/manuelrivera/git_repositories/DD_class_projects/class3_2026/class3_2026_sebasteam/verif/work/work.wb_top_tb.wcfg
run -all
[55000 ns] M0 WR  addr=0x0fff  data=0x0000abcd  (sending command)
[95000 ns]   BUS S0(MEM) WR  adr=0x0fff  wdat=0x0000abcd  sel=1111
[105000 ns]   BUS S0(MEM) WR  adr=0x0fff  wdat=0x0000abcd  sel=1111
[105000 ns]   BUS S0(MEM) ACK  rdat=0x00000000
[115000 ns] M0 WR  addr=0x0fff  ACK received
[135000 ns] M0 WR  addr=0x1000  data=0x0000fafa  (sending command)
[175000 ns]   BUS S1(REG) WR  adr=0x1000  wdat=0x0000fafa  sel=1111
[185000 ns]   BUS S1(REG) WR  adr=0x1000  wdat=0x0000fafa  sel=1111
[185000 ns]   BUS S1(REG) ACK  rdat=0x00000000
[195000 ns] M0 WR  addr=0x1000  ACK received
[215000 ns] M0 WR  addr=0x0001  data=0x0000aaaa  (sending command)
[255000 ns]   BUS S0(MEM) WR  adr=0x0001  wdat=0x0000aaaa  sel=1111
[265000 ns]   BUS S0(MEM) WR  adr=0x0001  wdat=0x0000aaaa  sel=1111
[265000 ns]   BUS S0(MEM) ACK  rdat=0x00000000
[275000 ns] M0 WR  addr=0x0001  ACK received
[295000 ns] M0 WR  addr=0x1004  data=0x00000000  (sending command)
[335000 ns]   BUS S2(RAM) WR  adr=0x1004  wdat=0x00000000  sel=1111
[345000 ns]   BUS S2(RAM) WR  adr=0x1004  wdat=0x00000000  sel=1111
[345000 ns]   BUS S2(RAM) ACK  rdat=0x00000000
[355000 ns] M0 WR  addr=0x1004  ACK received
[375000 ns] M0 WR  addr=0x1008  data=0x00000028  (sending command)
[415000 ns]   BUS S2(RAM) WR  adr=0x1008  wdat=0x00000028  sel=1111
[425000 ns]   BUS S2(RAM) WR  adr=0x1008  wdat=0x00000028  sel=1111
[425000 ns]   BUS S2(RAM) ACK  rdat=0x00000000
[435000 ns] M0 WR  addr=0x1008  ACK received
[455000 ns] M0 WR  addr=0x100c  data=0x00000050  (sending command)
[495000 ns]   BUS S2(RAM) WR  adr=0x100c  wdat=0x00000050  sel=1111
[505000 ns]   BUS S2(RAM) WR  adr=0x100c  wdat=0x00000050  sel=1111
[505000 ns]   BUS S2(RAM) ACK  rdat=0x00000000
[515000 ns] M0 WR  addr=0x100c  ACK received
[535000 ns] M0 WR  addr=0x1010  data=0x00000078  (sending command)
[575000 ns]   BUS S2(RAM) WR  adr=0x1010  wdat=0x00000078  sel=1111
[585000 ns]   BUS S2(RAM) WR  adr=0x1010  wdat=0x00000078  sel=1111
[585000 ns]   BUS S2(RAM) ACK  rdat=0x00000000
[595000 ns] M0 WR  addr=0x1010  ACK received
[615000 ns] M0 WR  addr=0x1014  data=0x000000a0  (sending command)
[655000 ns]   BUS S2(RAM) WR  adr=0x1014  wdat=0x000000a0  sel=1111
[665000 ns]   BUS S2(RAM) WR  adr=0x1014  wdat=0x000000a0  sel=1111
[665000 ns]   BUS S2(RAM) ACK  rdat=0x00000000
[675000 ns] M0 WR  addr=0x1014  ACK received
[695000 ns] M0 WR  addr=0x1018  data=0x000000c8  (sending command)
[735000 ns]   BUS S2(RAM) WR  adr=0x1018  wdat=0x000000c8  sel=1111
[745000 ns]   BUS S2(RAM) WR  adr=0x1018  wdat=0x000000c8  sel=1111
[745000 ns]   BUS S2(RAM) ACK  rdat=0x00000000
[755000 ns] M0 WR  addr=0x1018  ACK received
[775000 ns] M0 WR  addr=0x101c  data=0x000000f0  (sending command)
[815000 ns]   BUS S2(RAM) WR  adr=0x101c  wdat=0x000000f0  sel=1111
[825000 ns]   BUS S2(RAM) WR  adr=0x101c  wdat=0x000000f0  sel=1111
[825000 ns]   BUS S2(RAM) ACK  rdat=0x00000000
[835000 ns] M0 WR  addr=0x101c  ACK received
[855000 ns] M0 WR  addr=0x1020  data=0x00000118  (sending command)
[895000 ns]   BUS S2(RAM) WR  adr=0x1020  wdat=0x00000118  sel=1111
[905000 ns]   BUS S2(RAM) WR  adr=0x1020  wdat=0x00000118  sel=1111
[905000 ns]   BUS S2(RAM) ACK  rdat=0x00000000
[915000 ns] M0 WR  addr=0x1020  ACK received
[935000 ns] M0 WR  addr=0x1024  data=0x00000140  (sending command)
[975000 ns]   BUS S2(RAM) WR  adr=0x1024  wdat=0x00000140  sel=1111
[985000 ns]   BUS S2(RAM) WR  adr=0x1024  wdat=0x00000140  sel=1111
[985000 ns]   BUS S2(RAM) ACK  rdat=0x00000000
[995000 ns] M0 WR  addr=0x1024  ACK received
[1015000 ns] M0 WR  addr=0x1028  data=0x00000168  (sending command)
[1055000 ns]   BUS S2(RAM) WR  adr=0x1028  wdat=0x00000168  sel=1111
[1065000 ns]   BUS S2(RAM) WR  adr=0x1028  wdat=0x00000168  sel=1111
[1065000 ns]   BUS S2(RAM) ACK  rdat=0x00000000
[1075000 ns] M0 WR  addr=0x1028  ACK received
[1095000 ns] M0 WR  addr=0x102c  data=0x00000190  (sending command)
[1135000 ns]   BUS S2(RAM) WR  adr=0x102c  wdat=0x00000190  sel=1111
[1145000 ns]   BUS S2(RAM) WR  adr=0x102c  wdat=0x00000190  sel=1111
[1145000 ns]   BUS S2(RAM) ACK  rdat=0x00000000
[1155000 ns] M0 WR  addr=0x102c  ACK received
[1175000 ns] M0 WR  addr=0x1030  data=0x000001b8  (sending command)
[1215000 ns]   BUS S2(RAM) WR  adr=0x1030  wdat=0x000001b8  sel=1111
[1225000 ns]   BUS S2(RAM) WR  adr=0x1030  wdat=0x000001b8  sel=1111
[1225000 ns]   BUS S2(RAM) ACK  rdat=0x00000000
[1235000 ns] M0 WR  addr=0x1030  ACK received
[1255000 ns] M0 WR  addr=0x1034  data=0x000001e0  (sending command)
[1295000 ns]   BUS S2(RAM) WR  adr=0x1034  wdat=0x000001e0  sel=1111
[1305000 ns]   BUS S2(RAM) WR  adr=0x1034  wdat=0x000001e0  sel=1111
[1305000 ns]   BUS S2(RAM) ACK  rdat=0x00000000
[1315000 ns] M0 WR  addr=0x1034  ACK received
[1335000 ns] M0 WR  addr=0x1038  data=0x00000208  (sending command)
[1375000 ns]   BUS S2(RAM) WR  adr=0x1038  wdat=0x00000208  sel=1111
[1385000 ns]   BUS S2(RAM) WR  adr=0x1038  wdat=0x00000208  sel=1111
[1385000 ns]   BUS S2(RAM) ACK  rdat=0x00000000
[1395000 ns] M0 WR  addr=0x1038  ACK received
[1415000 ns] M0 WR  addr=0x103c  data=0x00000230  (sending command)
[1455000 ns]   BUS S2(RAM) WR  adr=0x103c  wdat=0x00000230  sel=1111
[1465000 ns]   BUS S2(RAM) WR  adr=0x103c  wdat=0x00000230  sel=1111
[1465000 ns]   BUS S2(RAM) ACK  rdat=0x00000000
[1475000 ns] M0 WR  addr=0x103c  ACK received
[1495000 ns] M0 WR  addr=0x1040  data=0x00000258  (sending command)
[1535000 ns]   BUS S2(RAM) WR  adr=0x1040  wdat=0x00000258  sel=1111
[1545000 ns]   BUS S2(RAM) WR  adr=0x1040  wdat=0x00000258  sel=1111
[1545000 ns]   BUS S2(RAM) ACK  rdat=0x00000000
[1555000 ns] M0 WR  addr=0x1040  ACK received
[1575000 ns] M0 WR  addr=0x1044  data=0x00000280  (sending command)
[1615000 ns]   BUS S2(RAM) WR  adr=0x1044  wdat=0x00000280  sel=1111
[1625000 ns]   BUS S2(RAM) WR  adr=0x1044  wdat=0x00000280  sel=1111
[1625000 ns]   BUS S2(RAM) ACK  rdat=0x00000000
[1635000 ns] M0 WR  addr=0x1044  ACK received
[1655000 ns] M0 WR  addr=0x1048  data=0x000002a8  (sending command)
[1695000 ns]   BUS S2(RAM) WR  adr=0x1048  wdat=0x000002a8  sel=1111
[1705000 ns]   BUS S2(RAM) WR  adr=0x1048  wdat=0x000002a8  sel=1111
[1705000 ns]   BUS S2(RAM) ACK  rdat=0x00000000
[1715000 ns] M0 WR  addr=0x1048  ACK received
[1735000 ns] M0 WR  addr=0x104c  data=0x000002d0  (sending command)
[1775000 ns]   BUS S2(RAM) WR  adr=0x104c  wdat=0x000002d0  sel=1111
[1785000 ns]   BUS S2(RAM) WR  adr=0x104c  wdat=0x000002d0  sel=1111
[1785000 ns]   BUS S2(RAM) ACK  rdat=0x00000000
[1795000 ns] M0 WR  addr=0x104c  ACK received
[1815000 ns] M0 WR  addr=0x1050  data=0x000002f8  (sending command)
[1855000 ns]   BUS S2(RAM) WR  adr=0x1050  wdat=0x000002f8  sel=1111
[1865000 ns]   BUS S2(RAM) WR  adr=0x1050  wdat=0x000002f8  sel=1111
[1865000 ns]   BUS S2(RAM) ACK  rdat=0x00000000
[1875000 ns] M0 WR  addr=0x1050  ACK received
[1895000 ns] M0 WR  addr=0x1054  data=0x00000320  (sending command)
[1935000 ns]   BUS S2(RAM) WR  adr=0x1054  wdat=0x00000320  sel=1111
[1945000 ns]   BUS S2(RAM) WR  adr=0x1054  wdat=0x00000320  sel=1111
[1945000 ns]   BUS S2(RAM) ACK  rdat=0x00000000
[1955000 ns] M0 WR  addr=0x1054  ACK received
[1975000 ns] M0 WR  addr=0x1058  data=0x00000348  (sending command)
[2015000 ns]   BUS S2(RAM) WR  adr=0x1058  wdat=0x00000348  sel=1111
[2025000 ns]   BUS S2(RAM) WR  adr=0x1058  wdat=0x00000348  sel=1111
[2025000 ns]   BUS S2(RAM) ACK  rdat=0x00000000
[2035000 ns] M0 WR  addr=0x1058  ACK received
[2055000 ns] M0 WR  addr=0x105c  data=0x00000370  (sending command)
[2095000 ns]   BUS S2(RAM) WR  adr=0x105c  wdat=0x00000370  sel=1111
[2105000 ns]   BUS S2(RAM) WR  adr=0x105c  wdat=0x00000370  sel=1111
[2105000 ns]   BUS S2(RAM) ACK  rdat=0x00000000
[2115000 ns] M0 WR  addr=0x105c  ACK received
[2135000 ns] M0 WR  addr=0x1060  data=0x00000398  (sending command)
[2175000 ns]   BUS S2(RAM) WR  adr=0x1060  wdat=0x00000398  sel=1111
[2185000 ns]   BUS S2(RAM) WR  adr=0x1060  wdat=0x00000398  sel=1111
[2185000 ns]   BUS S2(RAM) ACK  rdat=0x00000000
[2195000 ns] M0 WR  addr=0x1060  ACK received
[2215000 ns] M0 WR  addr=0x1064  data=0x000003c0  (sending command)
[2255000 ns]   BUS S2(RAM) WR  adr=0x1064  wdat=0x000003c0  sel=1111
[2265000 ns]   BUS S2(RAM) WR  adr=0x1064  wdat=0x000003c0  sel=1111
[2265000 ns]   BUS S2(RAM) ACK  rdat=0x00000000
[2275000 ns] M0 WR  addr=0x1064  ACK received
[2295000 ns] M0 RD  addr=0x0fff  (sending command)
[2335000 ns]   BUS S0(MEM) RD  adr=0x0fff  wdat=0x00000000  sel=1111
[2345000 ns]   BUS S0(MEM) RD  adr=0x0fff  wdat=0x00000000  sel=1111
[2345000 ns]   BUS S0(MEM) ACK  rdat=0x0000abcd
[2355000 ns] M0 RD  addr=0x0fff  data=0x0000abcd  ACK received
[2375000 ns] M0 RD  addr=0x1000  (sending command)
[2415000 ns]   BUS S1(REG) RD  adr=0x1000  wdat=0x00000000  sel=1111
[2425000 ns]   BUS S1(REG) RD  adr=0x1000  wdat=0x00000000  sel=1111
[2425000 ns]   BUS S1(REG) ACK  rdat=0x0000fafa
[2435000 ns] M0 RD  addr=0x1000  data=0x0000fafa  ACK received
[2455000 ns] M0 RD  addr=0x0001  (sending command)
[2495000 ns]   BUS S0(MEM) RD  adr=0x0001  wdat=0x00000000  sel=1111
[2505000 ns]   BUS S0(MEM) RD  adr=0x0001  wdat=0x00000000  sel=1111
[2505000 ns]   BUS S0(MEM) ACK  rdat=0x0000aaaa
[2515000 ns] M0 RD  addr=0x0001  data=0x0000aaaa  ACK received
[2535000 ns] M0 RD  addr=0x1004  (sending command)
[2575000 ns]   BUS S2(RAM) RD  adr=0x1004  wdat=0x00000000  sel=1111
[2585000 ns]   BUS S2(RAM) RD  adr=0x1004  wdat=0x00000000  sel=1111
[2585000 ns]   BUS S2(RAM) ACK  rdat=0x00000000
[2595000 ns] M0 RD  addr=0x1004  data=0x00000000  ACK received
[2615000 ns] M0 RD  addr=0x1008  (sending command)
[2655000 ns]   BUS S2(RAM) RD  adr=0x1008  wdat=0x00000000  sel=1111
[2665000 ns]   BUS S2(RAM) RD  adr=0x1008  wdat=0x00000000  sel=1111
[2665000 ns]   BUS S2(RAM) ACK  rdat=0x00000028
[2675000 ns] M0 RD  addr=0x1008  data=0x00000028  ACK received
[2695000 ns] M0 RD  addr=0x100c  (sending command)
[2735000 ns]   BUS S2(RAM) RD  adr=0x100c  wdat=0x00000000  sel=1111
[2745000 ns]   BUS S2(RAM) RD  adr=0x100c  wdat=0x00000000  sel=1111
[2745000 ns]   BUS S2(RAM) ACK  rdat=0x00000050
[2755000 ns] M0 RD  addr=0x100c  data=0x00000050  ACK received
[2775000 ns] M0 RD  addr=0x1010  (sending command)
[2815000 ns]   BUS S2(RAM) RD  adr=0x1010  wdat=0x00000000  sel=1111
[2825000 ns]   BUS S2(RAM) RD  adr=0x1010  wdat=0x00000000  sel=1111
[2825000 ns]   BUS S2(RAM) ACK  rdat=0x00000078
[2835000 ns] M0 RD  addr=0x1010  data=0x00000078  ACK received
[2855000 ns] M0 RD  addr=0x1014  (sending command)
[2895000 ns]   BUS S2(RAM) RD  adr=0x1014  wdat=0x00000000  sel=1111
[2905000 ns]   BUS S2(RAM) RD  adr=0x1014  wdat=0x00000000  sel=1111
[2905000 ns]   BUS S2(RAM) ACK  rdat=0x000000a0
[2915000 ns] M0 RD  addr=0x1014  data=0x000000a0  ACK received
[2935000 ns] M0 RD  addr=0x1018  (sending command)
[2975000 ns]   BUS S2(RAM) RD  adr=0x1018  wdat=0x00000000  sel=1111
[2985000 ns]   BUS S2(RAM) RD  adr=0x1018  wdat=0x00000000  sel=1111
[2985000 ns]   BUS S2(RAM) ACK  rdat=0x000000c8
[2995000 ns] M0 RD  addr=0x1018  data=0x000000c8  ACK received
[3015000 ns] M0 RD  addr=0x101c  (sending command)
[3055000 ns]   BUS S2(RAM) RD  adr=0x101c  wdat=0x00000000  sel=1111
[3065000 ns]   BUS S2(RAM) RD  adr=0x101c  wdat=0x00000000  sel=1111
[3065000 ns]   BUS S2(RAM) ACK  rdat=0x000000f0
[3075000 ns] M0 RD  addr=0x101c  data=0x000000f0  ACK received
[3095000 ns] M0 RD  addr=0x1020  (sending command)
[3135000 ns]   BUS S2(RAM) RD  adr=0x1020  wdat=0x00000000  sel=1111
[3145000 ns]   BUS S2(RAM) RD  adr=0x1020  wdat=0x00000000  sel=1111
[3145000 ns]   BUS S2(RAM) ACK  rdat=0x00000118
[3155000 ns] M0 RD  addr=0x1020  data=0x00000118  ACK received
[3175000 ns] M0 RD  addr=0x1024  (sending command)
[3215000 ns]   BUS S2(RAM) RD  adr=0x1024  wdat=0x00000000  sel=1111
[3225000 ns]   BUS S2(RAM) RD  adr=0x1024  wdat=0x00000000  sel=1111
[3225000 ns]   BUS S2(RAM) ACK  rdat=0x00000140
[3235000 ns] M0 RD  addr=0x1024  data=0x00000140  ACK received
[3255000 ns] M0 RD  addr=0x1028  (sending command)
[3295000 ns]   BUS S2(RAM) RD  adr=0x1028  wdat=0x00000000  sel=1111
[3305000 ns]   BUS S2(RAM) RD  adr=0x1028  wdat=0x00000000  sel=1111
[3305000 ns]   BUS S2(RAM) ACK  rdat=0x00000168
[3315000 ns] M0 RD  addr=0x1028  data=0x00000168  ACK received
[3335000 ns] M0 RD  addr=0x102c  (sending command)
[3375000 ns]   BUS S2(RAM) RD  adr=0x102c  wdat=0x00000000  sel=1111
[3385000 ns]   BUS S2(RAM) RD  adr=0x102c  wdat=0x00000000  sel=1111
[3385000 ns]   BUS S2(RAM) ACK  rdat=0x00000190
[3395000 ns] M0 RD  addr=0x102c  data=0x00000190  ACK received
[3415000 ns] M0 RD  addr=0x1030  (sending command)
[3455000 ns]   BUS S2(RAM) RD  adr=0x1030  wdat=0x00000000  sel=1111
[3465000 ns]   BUS S2(RAM) RD  adr=0x1030  wdat=0x00000000  sel=1111
[3465000 ns]   BUS S2(RAM) ACK  rdat=0x000001b8
[3475000 ns] M0 RD  addr=0x1030  data=0x000001b8  ACK received
[3495000 ns] M0 RD  addr=0x1034  (sending command)
[3535000 ns]   BUS S2(RAM) RD  adr=0x1034  wdat=0x00000000  sel=1111
[3545000 ns]   BUS S2(RAM) RD  adr=0x1034  wdat=0x00000000  sel=1111
[3545000 ns]   BUS S2(RAM) ACK  rdat=0x000001e0
[3555000 ns] M0 RD  addr=0x1034  data=0x000001e0  ACK received
[3575000 ns] M0 RD  addr=0x1038  (sending command)
[3615000 ns]   BUS S2(RAM) RD  adr=0x1038  wdat=0x00000000  sel=1111
[3625000 ns]   BUS S2(RAM) RD  adr=0x1038  wdat=0x00000000  sel=1111
[3625000 ns]   BUS S2(RAM) ACK  rdat=0x00000208
[3635000 ns] M0 RD  addr=0x1038  data=0x00000208  ACK received
[3655000 ns] M0 RD  addr=0x103c  (sending command)
[3695000 ns]   BUS S2(RAM) RD  adr=0x103c  wdat=0x00000000  sel=1111
[3705000 ns]   BUS S2(RAM) RD  adr=0x103c  wdat=0x00000000  sel=1111
[3705000 ns]   BUS S2(RAM) ACK  rdat=0x00000230
[3715000 ns] M0 RD  addr=0x103c  data=0x00000230  ACK received
[3735000 ns] M0 RD  addr=0x1040  (sending command)
[3775000 ns]   BUS S2(RAM) RD  adr=0x1040  wdat=0x00000000  sel=1111
[3785000 ns]   BUS S2(RAM) RD  adr=0x1040  wdat=0x00000000  sel=1111
[3785000 ns]   BUS S2(RAM) ACK  rdat=0x00000258
[3795000 ns] M0 RD  addr=0x1040  data=0x00000258  ACK received
[3815000 ns] M0 RD  addr=0x1044  (sending command)
[3855000 ns]   BUS S2(RAM) RD  adr=0x1044  wdat=0x00000000  sel=1111
[3865000 ns]   BUS S2(RAM) RD  adr=0x1044  wdat=0x00000000  sel=1111
[3865000 ns]   BUS S2(RAM) ACK  rdat=0x00000280
[3875000 ns] M0 RD  addr=0x1044  data=0x00000280  ACK received
[3895000 ns] M0 RD  addr=0x1048  (sending command)
[3935000 ns]   BUS S2(RAM) RD  adr=0x1048  wdat=0x00000000  sel=1111
[3945000 ns]   BUS S2(RAM) RD  adr=0x1048  wdat=0x00000000  sel=1111
[3945000 ns]   BUS S2(RAM) ACK  rdat=0x000002a8
[3955000 ns] M0 RD  addr=0x1048  data=0x000002a8  ACK received
[3975000 ns] M0 RD  addr=0x104c  (sending command)
[4015000 ns]   BUS S2(RAM) RD  adr=0x104c  wdat=0x00000000  sel=1111
[4025000 ns]   BUS S2(RAM) RD  adr=0x104c  wdat=0x00000000  sel=1111
[4025000 ns]   BUS S2(RAM) ACK  rdat=0x000002d0
[4035000 ns] M0 RD  addr=0x104c  data=0x000002d0  ACK received
[4055000 ns] M0 RD  addr=0x1050  (sending command)
[4095000 ns]   BUS S2(RAM) RD  adr=0x1050  wdat=0x00000000  sel=1111
[4105000 ns]   BUS S2(RAM) RD  adr=0x1050  wdat=0x00000000  sel=1111
[4105000 ns]   BUS S2(RAM) ACK  rdat=0x000002f8
[4115000 ns] M0 RD  addr=0x1050  data=0x000002f8  ACK received
[4135000 ns] M0 RD  addr=0x1054  (sending command)
[4175000 ns]   BUS S2(RAM) RD  adr=0x1054  wdat=0x00000000  sel=1111
[4185000 ns]   BUS S2(RAM) RD  adr=0x1054  wdat=0x00000000  sel=1111
[4185000 ns]   BUS S2(RAM) ACK  rdat=0x00000320
[4195000 ns] M0 RD  addr=0x1054  data=0x00000320  ACK received
[4215000 ns] M0 RD  addr=0x1058  (sending command)
[4255000 ns]   BUS S2(RAM) RD  adr=0x1058  wdat=0x00000000  sel=1111
[4265000 ns]   BUS S2(RAM) RD  adr=0x1058  wdat=0x00000000  sel=1111
[4265000 ns]   BUS S2(RAM) ACK  rdat=0x00000348
[4275000 ns] M0 RD  addr=0x1058  data=0x00000348  ACK received
[4295000 ns] M0 RD  addr=0x105c  (sending command)
[4335000 ns]   BUS S2(RAM) RD  adr=0x105c  wdat=0x00000000  sel=1111
[4345000 ns]   BUS S2(RAM) RD  adr=0x105c  wdat=0x00000000  sel=1111
[4345000 ns]   BUS S2(RAM) ACK  rdat=0x00000370
[4355000 ns] M0 RD  addr=0x105c  data=0x00000370  ACK received
[4375000 ns] M0 RD  addr=0x1060  (sending command)
[4415000 ns]   BUS S2(RAM) RD  adr=0x1060  wdat=0x00000000  sel=1111
[4425000 ns]   BUS S2(RAM) RD  adr=0x1060  wdat=0x00000000  sel=1111
[4425000 ns]   BUS S2(RAM) ACK  rdat=0x00000398
[4435000 ns] M0 RD  addr=0x1060  data=0x00000398  ACK received
[4455000 ns] M0 RD  addr=0x1064  (sending command)
[4495000 ns]   BUS S2(RAM) RD  adr=0x1064  wdat=0x00000000  sel=1111
[4505000 ns]   BUS S2(RAM) RD  adr=0x1064  wdat=0x00000000  sel=1111
[4505000 ns]   BUS S2(RAM) ACK  rdat=0x000003c0
[4515000 ns] M0 RD  addr=0x1064  data=0x000003c0  ACK received
[4565000 ns] M0 WR  addr=0x0000  data=0xfaa40862  (sending command)
[4605000 ns]   BUS S0(MEM) WR  adr=0x0000  wdat=0xfaa40862  sel=1111
[4615000 ns]   BUS S0(MEM) WR  adr=0x0000  wdat=0xfaa40862  sel=1111
[4615000 ns]   BUS S0(MEM) ACK  rdat=0x0000aaaa
[4625000 ns] M0 WR  addr=0x0000  ACK received
[4645000 ns] M0 WR  addr=0x0001  data=0xc8e38d6b  (sending command)
[4685000 ns]   BUS S0(MEM) WR  adr=0x0001  wdat=0xc8e38d6b  sel=1111
[4695000 ns]   BUS S0(MEM) WR  adr=0x0001  wdat=0xc8e38d6b  sel=1111
[4695000 ns]   BUS S0(MEM) ACK  rdat=0x0000aaaa
[4705000 ns] M0 WR  addr=0x0001  ACK received
[4725000 ns] M0 WR  addr=0x0002  data=0xfc979ea7  (sending command)
[4765000 ns]   BUS S0(MEM) WR  adr=0x0002  wdat=0xfc979ea7  sel=1111
[4775000 ns]   BUS S0(MEM) WR  adr=0x0002  wdat=0xfc979ea7  sel=1111
[4775000 ns]   BUS S0(MEM) ACK  rdat=0x0000aaaa
[4785000 ns] M0 WR  addr=0x0002  ACK received
[4805000 ns] M0 WR  addr=0x0003  data=0xe4d737f8  (sending command)
[4845000 ns]   BUS S0(MEM) WR  adr=0x0003  wdat=0xe4d737f8  sel=1111
[4855000 ns]   BUS S0(MEM) WR  adr=0x0003  wdat=0xe4d737f8  sel=1111
[4855000 ns]   BUS S0(MEM) ACK  rdat=0x0000aaaa
[4865000 ns] M0 WR  addr=0x0003  ACK received
[4885000 ns] M0 WR  addr=0x0004  data=0x0bdd9b3f  (sending command)
[4925000 ns]   BUS S0(MEM) WR  adr=0x0004  wdat=0x0bdd9b3f  sel=1111
[4935000 ns]   BUS S0(MEM) WR  adr=0x0004  wdat=0x0bdd9b3f  sel=1111
[4935000 ns]   BUS S0(MEM) ACK  rdat=0x0000aaaa
[4945000 ns] M0 WR  addr=0x0004  ACK received
[4965000 ns] M0 WR  addr=0x0005  data=0x91f80be7  (sending command)
[5005000 ns]   BUS S0(MEM) WR  adr=0x0005  wdat=0x91f80be7  sel=1111
[5015000 ns]   BUS S0(MEM) WR  adr=0x0005  wdat=0x91f80be7  sel=1111
[5015000 ns]   BUS S0(MEM) ACK  rdat=0x0000aaaa
[5025000 ns] M0 WR  addr=0x0005  ACK received
[5045000 ns] M0 WR  addr=0x0006  data=0xaf209c77  (sending command)
[5085000 ns]   BUS S0(MEM) WR  adr=0x0006  wdat=0xaf209c77  sel=1111
[5095000 ns]   BUS S0(MEM) WR  adr=0x0006  wdat=0xaf209c77  sel=1111
[5095000 ns]   BUS S0(MEM) ACK  rdat=0x0000aaaa
[5105000 ns] M0 WR  addr=0x0006  ACK received
[5125000 ns] M0 WR  addr=0x0007  data=0xf590a5a0  (sending command)
[5165000 ns]   BUS S0(MEM) WR  adr=0x0007  wdat=0xf590a5a0  sel=1111
[5175000 ns]   BUS S0(MEM) WR  adr=0x0007  wdat=0xf590a5a0  sel=1111
[5175000 ns]   BUS S0(MEM) ACK  rdat=0x0000aaaa
[5185000 ns] M0 WR  addr=0x0007  ACK received
[5205000 ns] M0 WR  addr=0x0008  data=0xec2b2fac  (sending command)
[5245000 ns]   BUS S0(MEM) WR  adr=0x0008  wdat=0xec2b2fac  sel=1111
[5255000 ns]   BUS S0(MEM) WR  adr=0x0008  wdat=0xec2b2fac  sel=1111
[5255000 ns]   BUS S0(MEM) ACK  rdat=0x0000aaaa
[5265000 ns] M0 WR  addr=0x0008  ACK received
[5285000 ns] M0 WR  addr=0x0009  data=0x3536470a  (sending command)
[5325000 ns]   BUS S0(MEM) WR  adr=0x0009  wdat=0x3536470a  sel=1111
[5335000 ns]   BUS S0(MEM) WR  adr=0x0009  wdat=0x3536470a  sel=1111
[5335000 ns]   BUS S0(MEM) ACK  rdat=0x0000aaaa
[5345000 ns] M0 WR  addr=0x0009  ACK received
[5365000 ns] M0 WR  addr=0x000a  data=0xd96ff1ef  (sending command)
[5405000 ns]   BUS S0(MEM) WR  adr=0x000a  wdat=0xd96ff1ef  sel=1111
[5415000 ns]   BUS S0(MEM) WR  adr=0x000a  wdat=0xd96ff1ef  sel=1111
[5415000 ns]   BUS S0(MEM) ACK  rdat=0x0000aaaa
[5425000 ns] M0 WR  addr=0x000a  ACK received
[5445000 ns] M0 WR  addr=0x000b  data=0x10451cd0  (sending command)
[5485000 ns]   BUS S0(MEM) WR  adr=0x000b  wdat=0x10451cd0  sel=1111
[5495000 ns]   BUS S0(MEM) WR  adr=0x000b  wdat=0x10451cd0  sel=1111
[5495000 ns]   BUS S0(MEM) ACK  rdat=0x0000aaaa
[5505000 ns] M0 WR  addr=0x000b  ACK received
[5525000 ns] M0 WR  addr=0x000c  data=0xf7a76d0b  (sending command)
[5565000 ns]   BUS S0(MEM) WR  adr=0x000c  wdat=0xf7a76d0b  sel=1111
[5575000 ns]   BUS S0(MEM) WR  adr=0x000c  wdat=0xf7a76d0b  sel=1111
[5575000 ns]   BUS S0(MEM) ACK  rdat=0x0000aaaa
[5585000 ns] M0 WR  addr=0x000c  ACK received
[5605000 ns] M0 WR  addr=0x000d  data=0xc1607c20  (sending command)
[5645000 ns]   BUS S0(MEM) WR  adr=0x000d  wdat=0xc1607c20  sel=1111
[5655000 ns]   BUS S0(MEM) WR  adr=0x000d  wdat=0xc1607c20  sel=1111
[5655000 ns]   BUS S0(MEM) ACK  rdat=0x0000aaaa
[5665000 ns] M0 WR  addr=0x000d  ACK received
[5685000 ns] M0 WR  addr=0x000e  data=0xd009512d  (sending command)
[5725000 ns]   BUS S0(MEM) WR  adr=0x000e  wdat=0xd009512d  sel=1111
[5735000 ns]   BUS S0(MEM) WR  adr=0x000e  wdat=0xd009512d  sel=1111
[5735000 ns]   BUS S0(MEM) ACK  rdat=0x0000aaaa
[5745000 ns] M0 WR  addr=0x000e  ACK received
[5765000 ns] M0 WR  addr=0x000f  data=0x877d4995  (sending command)
[5805000 ns]   BUS S0(MEM) WR  adr=0x000f  wdat=0x877d4995  sel=1111
[5815000 ns]   BUS S0(MEM) WR  adr=0x000f  wdat=0x877d4995  sel=1111
[5815000 ns]   BUS S0(MEM) ACK  rdat=0x0000aaaa
[5825000 ns] M0 WR  addr=0x000f  ACK received
[5875000 ns] M0 RD  addr=0x0000  (sending command)
[5915000 ns]   BUS S0(MEM) RD  adr=0x0000  wdat=0x00000000  sel=1111
[5925000 ns]   BUS S0(MEM) RD  adr=0x0000  wdat=0x00000000  sel=1111
[5925000 ns]   BUS S0(MEM) ACK  rdat=0xe4d737f8
[5935000 ns] M0 RD  addr=0x0000  data=0xe4d737f8  ACK received
[5955000 ns] M0 RD  addr=0x0001  (sending command)
[5995000 ns]   BUS S0(MEM) RD  adr=0x0001  wdat=0x00000000  sel=1111
[6005000 ns]   BUS S0(MEM) RD  adr=0x0001  wdat=0x00000000  sel=1111
[6005000 ns]   BUS S0(MEM) ACK  rdat=0xe4d737f8
[6015000 ns] M0 RD  addr=0x0001  data=0xe4d737f8  ACK received
[6035000 ns] M0 RD  addr=0x0002  (sending command)
[6075000 ns]   BUS S0(MEM) RD  adr=0x0002  wdat=0x00000000  sel=1111
[6085000 ns]   BUS S0(MEM) RD  adr=0x0002  wdat=0x00000000  sel=1111
